[
 {
  "name": "Healthy",
  "desc": "Eat healthy, eat clean. It's important to keep your body healthy",
  "img": "https://images.unsplash.com/photo-1490645935967-10de6ba17061?ixid=MnwxMjA3fDB8MHxwaG90by1wYWdlfHx8fGVufDB8fHx8&ixlib=rb-1.2.1&auto=format&fit=crop&w=1335&q=80",
  "price": 89,
  "discountPrice": 78,
  "id": "1",
  "detailDesc": "The foods you eat have big effects on your health and quality of life.\nAlthough eating healthy can be fairly simple, the rise in popular “diets” and dieting trends has caused confusion.\n\n In fact, these trends often distract from the basic nutrition principles that are most important.\n\nThis is a detailed beginner’s guide to healthy eating, based on the latest in nutrition science.",
  "imageList": [
   "https://images.unsplash.com/photo-1547592180-85f173990554?ixid=MnwxMjA3fDB8MHxwaG90by1wYWdlfHx8fGVufDB8fHx8&ixlib=rb-1.2.1&auto=format&fit=crop&w=1350&q=80",
   "https://images.unsplash.com/photo-1467453678174-768ec283a940?ixid=MnwxMjA3fDB8MHxwaG90by1wYWdlfHx8fGVufDB8fHx8&ixlib=rb-1.2.1&auto=format&fit=crop&w=1028&q=80",
   "https://images.unsplash.com/photo-1540420773420-3366772f4999?ixid=MnwxMjA3fDB8MHxwaG90by1wYWdlfHx8fGVufDB8fHx8&ixlib=rb-1.2.1&auto=format&fit=crop&w=631&q=80"
  ],
  "dealAddress": {
   "address": "135 Nam Kỳ Khởi Nghĩa, Phường Bến Thành, Quận 1, Thành phố Hồ Chí Minh, Vietnam",
   "location": {
    "lat": 10.777494122255527,
    "long": 106.6954445522807
   }
  },
  "phoneNumber": "444-354-7567",
  "email": "healthy@hotmail.com",
  "website": "https://www.heartandstroke.ca/healthy-living/healthy-eating/healthy-eating-basics"
 },
 {
  "name": "Accessories",
  "desc": "Everything from glass, wallet to watches. Let's see what we have to offer you. Click now!!!",
  "img": "https://picsum.photos/id/26/500/500",
  "price": 35,
  "discountPrice": 0,
  "id": "2",
  "detailDesc": "Express your personal style with women's accessories. Refresh your look with hats, scarves, belts and more from Accessorize Global.",
  "imageList": [
   "https://images.unsplash.com/photo-1519431458145-1ca3d5ccd68e?ixid=MnwxMjA3fDB8MHxwaG90by1wYWdlfHx8fGVufDB8fHx8&ixlib=rb-1.2.1&auto=format&fit=crop&w=1350&q=80",
   "https://images.unsplash.com/photo-1492707892479-7bc8d5a4ee93?ixid=MnwxMjA3fDB8MHxwaG90by1wYWdlfHx8fGVufDB8fHx8&ixlib=rb-1.2.1&auto=format&fit=crop&w=701&q=80",
   "https://images.unsplash.com/photo-1506169894395-36397e4aaee4?ixid=MnwxMjA3fDB8MHxwaG90by1wYWdlfHx8fGVufDB8fHx8&ixlib=rb-1.2.1&auto=format&fit=crop&w=1350&q=80"
  ],
  "dealAddress": {
   "address": "720A Điện Biên Phủ, Phường 22, Bình Thạnh, Thành phố Hồ Chí Minh, Vietnam",
   "location": {
    "lat": 10.795990709190836,
    "long": 106.72259145979858
   }
  },
  "phoneNumber": "867-356-9878",
  "email": "accessories.hot@gmail.com",
  "website": "https://www.accessorize.com/row/?redirected=true&cgid=acc_accessories"
 },
 {
  "name": "Travel",
  "desc": "Discount travel voucher, enjoy your holidays. Travel can enhance your creativity, your sense of happiness and satisfaction",
  "img": "https://images.unsplash.com/photo-1488646953014-85cb44e25828?ixid=MnwxMjA3fDB8MHxwaG90by1wYWdlfHx8fGVufDB8fHx8&ixlib=rb-1.2.1&auto=format&fit=crop&w=933&q=80",
  "price": 110,
  "discountPrice": 100,
  "id": "4",
  "detailDesc": "There's little as stressful, or as special, as holiday travel.\nThough travelers do have to deal with extra crowds on holidays, they also get the chance to witness something truly unique-a celebration shared across the globe, or an event cherished by a single locale. Whether you're going home for Christmas (or taking a relaxing beach vacation far away from home), Travel + Leisure knows how to navigate the best and worst of holiday travels. \n We can even help you nail down the perfect reservation for Valentine's Day or discover the best place in the nation to grill on the Fourth of July.",
  "imageList": [
   "https://images.unsplash.com/photo-1469854523086-cc02fe5d8800?ixid=MnwxMjA3fDB8MHxwaG90by1wYWdlfHx8fGVufDB8fHx8&ixlib=rb-1.2.1&auto=format&fit=crop&w=1308&q=80",
   "https://images.unsplash.com/photo-1452421822248-d4c2b47f0c81?ixid=MnwxMjA3fDB8MHxwaG90by1wYWdlfHx8fGVufDB8fHx8&ixlib=rb-1.2.1&auto=format&fit=crop&w=967&q=80",
   "https://images.unsplash.com/photo-1437846972679-9e6e537be46e?ixid=MnwxMjA3fDB8MHxwaG90by1wYWdlfHx8fGVufDB8fHx8&ixlib=rb-1.2.1&auto=format&fit=crop&w=1351&q=80",
   "https://images.unsplash.com/photo-1497262693247-aa258f96c4f5?ixid=MnwxMjA3fDB8MHxwaG90by1wYWdlfHx8fGVufDB8fHx8&ixlib=rb-1.2.1&auto=format&fit=crop&w=624&q=80"
  ],
  "dealAddress": {
   "address": "Tuần Châu, Thành phố Hạ Long, Quảng Ninh, Vietnam",
   "location": {
    "lat": 20.946825857839904,
    "long": 107.03022863668653
   }
  },
  "phoneNumber": "756-344-7423",
  "email": "travel.everywhere@gmail.com",
  "website": "https://vietnam.travel/home"
 },
 {
  "name": "Tralvel to Vietnam",
  "desc": "Enjoy 19% discount for plane ticket when travel to Hoi An, Vietnam",
  "img": "https://picsum.photos/id/428/400/400",
  "price": 839,
  "discountPrice": 700,
  "id": "5",
  "detailDesc": "Hoi An Town is an exceptionally well-preserved example of a Southeast Asian trading port dating from the 15th to the 19th century. Its buildings and its street plan reflect the influences, both indigenous and foreign, that have combined to produce this unique heritage site.\n\n Hoi An has no airport, and no train station either. The only way to get there is by road. You can hire a taxi from the neighbouring city of Da Nang, which does have an airport with daily flights from Hanoi, Ho Chi Minh City and other large Vietnamese cities. There’s also a train station in Da Nang, and bus services are plentiful. We have a wide selection of hotels for you to choose from in both Cua Dai Beach and Hoi An City, whatever suits your pocket and style.",
  "imageList": [
   "https://images.unsplash.com/photo-1528127269322-539801943592?ixid=MnwxMjA3fDB8MHxwaG90by1wYWdlfHx8fGVufDB8fHx8&ixlib=rb-1.2.1&auto=format&fit=crop&w=1350&q=80",
   "https://images.unsplash.com/photo-1531737212413-667205e1cda7?ixid=MnwxMjA3fDB8MHxwaG90by1wYWdlfHx8fGVufDB8fHx8&ixlib=rb-1.2.1&auto=format&fit=crop&w=675&q=80",
   "https://images.unsplash.com/photo-1526139334526-f591a54b477c?ixid=MnwxMjA3fDB8MHxwaG90by1wYWdlfHx8fGVufDB8fHx8&ixlib=rb-1.2.1&auto=format&fit=crop&w=1350&q=80"
  ],
  "dealAddress": {
   "address": "46 Trần Phú, Cẩm Châu, Hội An, Quảng Nam, Vietnam",
   "location": {
    "lat": 15.87692958651349,
    "long": 108.33047958322088
   }
  },
  "phoneNumber": "840-544-3477",
  "email": "travel.vn.now@gmail.com",
  "website": "https://vietnam.travel/home"
 },
 {
  "name": "Tea",
  "desc": "From green tea to hibiscus, from white tea to chamomile, teas are chock full of flavonoids and other healthy goodies",
  "img": "https://images.unsplash.com/photo-1536513953700-ba24c78a5f51?ixid=MnwxMjA3fDB8MHxwaG90by1wYWdlfHx8fGVufDB8fHx8&ixlib=rb-1.2.1&auto=format&fit=crop&w=700&q=80",
  "price": 12,
  "discountPrice": 0,
  "id": "3",
  "detailDesc": "Tea is an aromatic beverage prepared by pouring hot or boiling water over cured or fresh leaves of Camellia sinensis, an evergreen shrub native to China and East Asia",
  "imageList": [
   "https://images.unsplash.com/photo-1594631252845-29fc4cc8cde9?ixid=MnwxMjA3fDB8MHxwaG90by1wYWdlfHx8fGVufDB8fHx8&ixlib=rb-1.2.1&auto=format&fit=crop&w=634&q=80",
   "https://images.unsplash.com/photo-1564890369478-c89ca6d9cde9?ixid=MnwxMjA3fDB8MHxwaG90by1wYWdlfHx8fGVufDB8fHx8&ixlib=rb-1.2.1&auto=format&fit=crop&w=1350&q=80"
  ],
  "dealAddress": {
   "address": "2 Hùng Vương, Điện Bàn, Ba Đình, Hà Nội 100000, Vietnam",
   "location": {
    "lat": 21.037084857736087,
    "long": 105.83470644487058
   }
  },
  "phoneNumber": "432-688-5467",
  "email": "tea.green@yahoo.com",
  "website": "https://www.artoftea.com"
 },
 {
  "name": "Music festival",
  "desc": "From the USA to Europe to beyond, find your perfect music fest this summer with the MFW festival database covering every genre, every style, and every size",
  "img": "https://images.unsplash.com/photo-1506157786151-b8491531f063?ixid=MnwxMjA3fDB8MHxwaG90by1wYWdlfHx8fGVufDB8fHx8&ixlib=rb-1.2.1&auto=format&fit=crop&w=1350&q=80",
  "price": 35,
  "discountPrice": 32,
  "id": "6",
  "detailDesc": "Listen live to the sound of Tomorrowland or relive the most iconic moments. ... Around the World",
  "imageList": [
   "https://images.unsplash.com/photo-1582711012124-a56cf82307a0?ixid=MnwxMjA3fDB8MHxwaG90by1wYWdlfHx8fGVufDB8fHx8&ixlib=rb-1.2.1&auto=format&fit=crop&w=1410&q=80",
   "https://images.unsplash.com/photo-1578946956088-940c3b502864?ixid=MnwxMjA3fDB8MHxwaG90by1wYWdlfHx8fGVufDB8fHx8&ixlib=rb-1.2.1&auto=format&fit=crop&w=1482&q=80",
   "https://images.unsplash.com/photo-1578850141295-7fb35c301da6?ixid=MnwxMjA3fDB8MHxwaG90by1wYWdlfHx8fGVufDB8fHx8&ixlib=rb-1.2.1&auto=format&fit=crop&w=1350&q=80"
  ],
  "dealAddress": {
   "address": "10 Đường Mai Chí Thọ, Thủ Thiêm, Thành Phố Thủ Đức, Thành phố Hồ Chí Minh, Vietnam",
   "location": {
    "lat": 10.772424400161725,
    "long": 106.72213998661198
   }
  },
  "phoneNumber": "123-474-7056",
  "email": "music.house@gmail.org",
  "website": "https://www.tomorrowland.com/home/"
 }
]
